<?xml version="1.0" encoding="UTF-8" standalone="no"?>
<svg
   xmlns:dc="http://purl.org/dc/elements/1.1/"
   xmlns:cc="http://creativecommons.org/ns#"
   xmlns:rdf="http://www.w3.org/1999/02/22-rdf-syntax-ns#"
   xmlns="http://www.w3.org/2000/svg"
   xmlns:sodipodi="http://sodipodi.sourceforge.net/DTD/sodipodi-0.dtd"
   xmlns:inkscape="http://www.inkscape.org/namespaces/inkscape"
   id="svg4819"
   version="1.1"
   viewBox="0 0 108 108"
   height="108"
   width="108"
   sodipodi:docname="SimpleMatrixLogo.svg"
   inkscape:version="0.92.2 (5c3e80d, 2017-08-06)">
  <sodipodi:namedview
     pagecolor="#ffffff"
     bordercolor="#666666"
     borderopacity="1"
     objecttolerance="10"
     gridtolerance="10"
     guidetolerance="10"
     inkscape:pageopacity="0"
     inkscape:pageshadow="2"
     inkscape:window-width="1920"
     inkscape:window-height="1057"
     id="namedview828"
     showgrid="false"
     inkscape:zoom="5.6568543"
     inkscape:cx="22.60805"
     inkscape:cy="54.565362"
     inkscape:window-x="-8"
     inkscape:window-y="-8"
     inkscape:window-maximized="1"
     inkscape:current-layer="layer1"
     showguides="true" />
  <defs
     id="defs4813" />
  <metadata
     id="metadata4816">
    <rdf:RDF>
      <cc:Work
         rdf:about="">
        <dc:format>image/svg+xml</dc:format>
        <dc:type
           rdf:resource="http://purl.org/dc/dcmitype/StillImage" />
        <dc:title></dc:title>
      </cc:Work>
    </rdf:RDF>
  </metadata>
  <g
     transform="translate(0,-268.42498)"
     id="layer1">
    <g
       id="g1518"
       transform="matrix(0.33541818,0,0,0.33541818,35.88739,214.27778)">
      <g
         id="g2159"
         transform="matrix(1.0969689,0,0,1.0969689,-5.2363295,-31.265187)">
        <rect
           style="opacity:1;fill:#ffc107;fill-opacity:0.98392286;stroke:none;stroke-width:13.94368172;stroke-linecap:round;stroke-linejoin:round;stroke-miterlimit:4;stroke-dasharray:none;stroke-opacity:0.58878503"
           id="rect1394"
           width="159.86101"
           height="29.35512"
           x="-269.73557"
           y="186.91389"
           transform="rotate(-45)" />
        <rect
           style="opacity:1;fill:#0288d1;fill-opacity:1;stroke:none;stroke-width:13.94368172;stroke-linecap:round;stroke-linejoin:round;stroke-miterlimit:4;stroke-dasharray:none;stroke-opacity:0.58878503"
           id="rect1394-5"
           width="159.86101"
           height="29.35512"
           x="-269.73557"
           y="245.62415"
           transform="rotate(-45)" />
        <rect
           style="opacity:1;fill:#d32f2f;fill-opacity:1;stroke:none;stroke-width:13.94368172;stroke-linecap:round;stroke-linejoin:round;stroke-miterlimit:4;stroke-dasharray:none;stroke-opacity:0.58878503"
           id="rect1394-0"
           width="159.86101"
           height="29.35512"
           x="-269.73557"
           y="216.26903"
           transform="rotate(-45)" />
        <rect
           style="opacity:1;fill:#b3e5fc;fill-opacity:1;stroke:none;stroke-width:13.94368172;stroke-linecap:round;stroke-linejoin:round;stroke-miterlimit:4;stroke-dasharray:none;stroke-opacity:0.58878503"
           id="rect1394-0-5"
           width="159.86101"
           height="29.35512"
           x="-269.73557"
           y="304.33438"
           transform="rotate(-45)" />
        <rect
           style="opacity:1;fill:#999999;fill-opacity:1;stroke:none;stroke-width:13.94368172;stroke-linecap:round;stroke-linejoin:round;stroke-miterlimit:4;stroke-dasharray:none;stroke-opacity:0.58878503"
           id="rect1394-0-5-1"
           width="159.86101"
           height="29.35512"
           x="-269.73557"
           y="274.97925"
           inkscape:transform-center-x="-8.6949153"
           inkscape:transform-center-y="-11.898305"
           transform="rotate(-45)" />
        <rect
           style="opacity:1;fill:#e8e8e8;fill-opacity:0.9935484;stroke:none;stroke-width:8.81875896;stroke-linecap:round;stroke-linejoin:round;stroke-miterlimit:4;stroke-dasharray:none;stroke-opacity:0.58878503"
           id="rect1394-0-5-1-3"
           width="159.86101"
           height="11.742047"
           x="-269.73557"
           y="333.68948"
           inkscape:transform-center-x="-8.6949153"
           inkscape:transform-center-y="-4.759322"
           transform="rotate(-45)" />
      </g>
    </g>
    <g
       id="g2093"
       transform="matrix(0.41666667,0,0,0.41666667,31.5,188.08123)">
      <rect
         style="opacity:1;fill:#000000;fill-opacity:1;stroke:none;stroke-width:9.5;stroke-linecap:round;stroke-linejoin:round;stroke-miterlimit:4;stroke-dasharray:none;stroke-opacity:0.58878503"
         id="rect5383"
         width="10"
         height="108"
         x="0"
         y="268.42499" />
      <rect
         style="opacity:1;fill:#000000;fill-opacity:1;stroke:none;stroke-width:9.5;stroke-linecap:round;stroke-linejoin:round;stroke-miterlimit:4;stroke-dasharray:none;stroke-opacity:0.58878503"
         id="rect5383-8"
         width="10"
         height="108"
         x="98"
         y="268.42499" />
    </g>
    <rect
       style="opacity:1;fill:#ffffff;fill-opacity:1;stroke:none;stroke-width:12.56758308;stroke-linecap:round;stroke-linejoin:round;stroke-miterlimit:4;stroke-dasharray:none;stroke-opacity:0.58878503"
       id="rect2095"
       width="31.496094"
       height="108"
       x="0"
       y="268.42499" />
    <rect
       style="opacity:1;fill:#ffffff;fill-opacity:1;stroke:none;stroke-width:12.56736755;stroke-linecap:round;stroke-linejoin:round;stroke-miterlimit:4;stroke-dasharray:none;stroke-opacity:0.58878503"
       id="rect2097-8"
       width="108"
       x="0"
       y="268.42499"
       height="31.495001" />
    <rect
       style="opacity:1;fill:#ffffff;fill-opacity:1;stroke:none;stroke-width:12.56736755;stroke-linecap:round;stroke-linejoin:round;stroke-miterlimit:4;stroke-dasharray:none;stroke-opacity:0.58878503"
       id="rect2097-8-6"
       width="108"
       x="0"
       y="344.92999"
       height="31.495001" />
    <rect
       style="opacity:1;fill:#ffffff;fill-opacity:1;stroke:none;stroke-width:12.56758308;stroke-linecap:round;stroke-linejoin:round;stroke-miterlimit:4;stroke-dasharray:none;stroke-opacity:0.58878503"
       id="rect2095-3"
       width="31.496094"
       height="108"
       x="76.503906"
       y="268.42499" />
    <path
       id="rect2083"
       d="m 2.5e-6,268.42498 v 108 H 108 v -108 z M 31.499997,300.4035 h 4.275391 v 1.03125 h -3.089844 v 42.9375 h 3.089844 v 1.03125 h -4.275391 z m 40.724609,0 h 4.275391 v 45 h -4.275391 v -1.03125 h 3.089844 v -42.9375 h -3.089844 z m -17.765625,7.89062 c 2.03125,0 3.841146,0.3711 5.429688,1.11329 1.588542,0.72916 2.81901,1.76432 3.691406,3.10546 0.885417,1.34115 1.328125,2.86459 1.328125,4.57032 h -5.859375 c 0,-1.30209 -0.410156,-2.3112 -1.230469,-3.02735 -0.820312,-0.72916 -1.972656,-1.09375 -3.457031,-1.09375 -1.432292,0 -2.545573,0.30599 -3.339844,0.91797 -0.79427,0.59896 -1.191406,1.39323 -1.191406,2.38281 0,0.92448 0.46224,1.69922 1.386719,2.32422 0.9375,0.625 2.311198,1.21094 4.121094,1.75782 3.333333,1.0026 5.761718,2.24609 7.285156,3.73046 1.523437,1.48438 2.285156,3.33334 2.285156,5.54688 0,2.46094 -0.930989,4.39453 -2.792969,5.80078 -1.861979,1.39323 -4.368489,2.08984 -7.519531,2.08984 -2.1875,0 -4.179687,-0.39713 -5.976562,-1.1914 -1.796875,-0.80729 -3.170573,-1.90755 -4.121094,-3.30078 -0.9375,-1.39323 -1.40625,-3.00782 -1.40625,-4.84375 H 48.9707 c 0,3.13802 1.875,4.70703 5.625,4.70703 1.393229,0 2.480469,-0.27995 3.261719,-0.83985 0.78125,-0.57291 1.171875,-1.36718 1.171875,-2.38281 0,-1.10677 -0.390625,-1.95312 -1.171875,-2.53906 -0.78125,-0.59896 -2.1875,-1.22396 -4.21875,-1.875 -2.03125,-0.66406 -3.639323,-1.3151 -4.824219,-1.95313 -3.229167,-1.74479 -4.84375,-4.09505 -4.84375,-7.05078 0,-1.53646 0.429688,-2.90364 1.289063,-4.10156 0.872395,-1.21094 2.115885,-2.15495 3.730468,-2.83203 1.627605,-0.67708 3.450521,-1.01563 5.46875,-1.01563 z"
       style="opacity:1;fill:#ffffff;fill-opacity:0.99032258;stroke:none;stroke-width:9.5;stroke-linecap:round;stroke-linejoin:round;stroke-miterlimit:4;stroke-dasharray:none;stroke-opacity:0.58878503"
       inkscape:connector-curvature="0" />
  </g>
</svg>
